{
  "artifactGenerations" : [ ],
  "artifactId" : "test-proj-three",
  "groupId" : "org.test.three.demo",
  "metamodelDependencies" : [ ],
  "projectDependencies" : [ ],
  "projectId" : "UAT-32777424",
  "projectStructureVersion" : {
    "extensionVersion" : 1,
    "version" : 11
  },
  "projectType" : "PROTOTYPE"
}